﻿  Assignment.c
  Assignment22_5.vcxproj -> F:\LB Assignment\Assignment22_5\Debug\Assignment22_5.exe
  Assignment22_5.vcxproj -> F:\LB Assignment\Assignment22_5\Debug\Assignment22_5.pdb (Partial PDB)
