﻿  assignment.c
  Assignment15_1.vcxproj -> F:\LB Assignment\Assignment15_1\Debug\Assignment15_1.exe
  Assignment15_1.vcxproj -> F:\LB Assignment\Assignment15_1\Debug\Assignment15_1.pdb (Partial PDB)
