﻿  assignment.c
  Assignment13_3.vcxproj -> F:\LB Assignment\Assignment13_3\Debug\Assignment13_3.exe
  Assignment13_3.vcxproj -> F:\LB Assignment\Assignment13_3\Debug\Assignment13_3.pdb (Partial PDB)
