﻿  Assignment.c
  Assignment31_4.vcxproj -> F:\LB Assignment\Assignment31_4\Debug\Assignment31_4.exe
  Assignment31_4.vcxproj -> F:\LB Assignment\Assignment31_4\Debug\Assignment31_4.pdb (Partial PDB)
